
{
  "header": {
    "reportVersion": 1,
    "event": "Allocation failed - JavaScript heap out of memory",
    "trigger": "FatalError",
    "filename": "report.20210128.112528.18708.0.001.json",
    "dumpEventTime": "2021-01-28T11:25:28Z",
    "dumpEventTimeStamp": "1611807928976",
    "processId": 18708,
    "cwd": "C:\\Users\\Pajakku\\Documents\\starter-spa",
    "commandLine": [
      "C:\\Program Files\\nodejs\\node.exe",
      "C:\\Users\\Pajakku\\Documents\\starter-spa\\node_modules\\react-app-rewired\\scripts\\start.js"
    ],
    "nodejsVersion": "v12.15.0",
    "wordSize": 64,
    "arch": "x64",
    "platform": "win32",
    "componentVersions": {
      "node": "12.15.0",
      "v8": "7.7.299.13-node.16",
      "uv": "1.33.1",
      "zlib": "1.2.11",
      "brotli": "1.0.7",
      "ares": "1.15.0",
      "modules": "72",
      "nghttp2": "1.40.0",
      "napi": "5",
      "llhttp": "2.0.4",
      "http_parser": "2.9.3",
      "openssl": "1.1.1d",
      "cldr": "35.1",
      "icu": "64.2",
      "tz": "2019c",
      "unicode": "12.1"
    },
    "release": {
      "name": "node",
      "lts": "Erbium",
      "headersUrl": "https://nodejs.org/download/release/v12.15.0/node-v12.15.0-headers.tar.gz",
      "sourceUrl": "https://nodejs.org/download/release/v12.15.0/node-v12.15.0.tar.gz",
      "libUrl": "https://nodejs.org/download/release/v12.15.0/win-x64/node.lib"
    },
    "osName": "Windows_NT",
    "osRelease": "10.0.18363",
    "osVersion": "Windows 10 Home Single Language",
    "osMachine": "x86_64",
    "cpus": [
      {
        "model": "Intel(R) Core(TM) i7-9750H CPU @ 2.60GHz",
        "speed": 2592,
        "user": 604750,
        "nice": 0,
        "sys": 486156,
        "idle": 4777953,
        "irq": 144437
      },
      {
        "model": "Intel(R) Core(TM) i7-9750H CPU @ 2.60GHz",
        "speed": 2592,
        "user": 481093,
        "nice": 0,
        "sys": 317921,
        "idle": 5069468,
        "irq": 5562
      },
      {
        "model": "Intel(R) Core(TM) i7-9750H CPU @ 2.60GHz",
        "speed": 2592,
        "user": 965125,
        "nice": 0,
        "sys": 476812,
        "idle": 4426546,
        "irq": 7484
      },
      {
        "model": "Intel(R) Core(TM) i7-9750H CPU @ 2.60GHz",
        "speed": 2592,
        "user": 522312,
        "nice": 0,
        "sys": 256531,
        "idle": 5089640,
        "irq": 3500
      },
      {
        "model": "Intel(R) Core(TM) i7-9750H CPU @ 2.60GHz",
        "speed": 2592,
        "user": 691765,
        "nice": 0,
        "sys": 450531,
        "idle": 4726171,
        "irq": 7484
      },
      {
        "model": "Intel(R) Core(TM) i7-9750H CPU @ 2.60GHz",
        "speed": 2592,
        "user": 390390,
        "nice": 0,
        "sys": 186984,
        "idle": 5291093,
        "irq": 2828
      },
      {
        "model": "Intel(R) Core(TM) i7-9750H CPU @ 2.60GHz",
        "speed": 2592,
        "user": 579093,
        "nice": 0,
        "sys": 422312,
        "idle": 4867062,
        "irq": 9031
      },
      {
        "model": "Intel(R) Core(TM) i7-9750H CPU @ 2.60GHz",
        "speed": 2592,
        "user": 506234,
        "nice": 0,
        "sys": 228796,
        "idle": 5133437,
        "irq": 5171
      },
      {
        "model": "Intel(R) Core(TM) i7-9750H CPU @ 2.60GHz",
        "speed": 2592,
        "user": 528437,
        "nice": 0,
        "sys": 340000,
        "idle": 5000031,
        "irq": 7078
      },
      {
        "model": "Intel(R) Core(TM) i7-9750H CPU @ 2.60GHz",
        "speed": 2592,
        "user": 666046,
        "nice": 0,
        "sys": 209593,
        "idle": 4992828,
        "irq": 4765
      },
      {
        "model": "Intel(R) Core(TM) i7-9750H CPU @ 2.60GHz",
        "speed": 2592,
        "user": 557609,
        "nice": 0,
        "sys": 302796,
        "idle": 5008062,
        "irq": 7656
      },
      {
        "model": "Intel(R) Core(TM) i7-9750H CPU @ 2.60GHz",
        "speed": 2592,
        "user": 461765,
        "nice": 0,
        "sys": 171781,
        "idle": 5234921,
        "irq": 3406
      }
    ],
    "networkInterfaces": [
      {
        "name": "VirtualBox Host-Only Network",
        "internal": false,
        "mac": "0a:00:27:00:00:05",
        "address": "fe80::905c:cbf2:a6c8:3910",
        "netmask": "ffff:ffff:ffff:ffff::",
        "family": "IPv6",
        "scopeid": 5
      },
      {
        "name": "VirtualBox Host-Only Network",
        "internal": false,
        "mac": "0a:00:27:00:00:05",
        "address": "192.168.56.1",
        "netmask": "255.255.255.0",
        "family": "IPv4"
      },
      {
        "name": "VirtualBox Host-Only Network #2",
        "internal": false,
        "mac": "0a:00:27:00:00:15",
        "address": "fe80::1d40:37a1:c15a:783e",
        "netmask": "ffff:ffff:ffff:ffff::",
        "family": "IPv6",
        "scopeid": 21
      },
      {
        "name": "VirtualBox Host-Only Network #2",
        "internal": false,
        "mac": "0a:00:27:00:00:15",
        "address": "192.168.179.2",
        "netmask": "255.255.255.0",
        "family": "IPv4"
      },
      {
        "name": "Wi-Fi",
        "internal": false,
        "mac": "4c:1d:96:5d:cf:6e",
        "address": "fe80::d0cb:ba10:3220:84b5",
        "netmask": "ffff:ffff:ffff:ffff::",
        "family": "IPv6",
        "scopeid": 15
      },
      {
        "name": "Wi-Fi",
        "internal": false,
        "mac": "4c:1d:96:5d:cf:6e",
        "address": "192.168.3.88",
        "netmask": "255.255.255.0",
        "family": "IPv4"
      },
      {
        "name": "Loopback Pseudo-Interface 1",
        "internal": true,
        "mac": "00:00:00:00:00:00",
        "address": "::1",
        "netmask": "ffff:ffff:ffff:ffff:ffff:ffff:ffff:ffff",
        "family": "IPv6",
        "scopeid": 0
      },
      {
        "name": "Loopback Pseudo-Interface 1",
        "internal": true,
        "mac": "00:00:00:00:00:00",
        "address": "127.0.0.1",
        "netmask": "255.0.0.0",
        "family": "IPv4"
      }
    ],
    "host": "RIFANI-LAPTOP"
  },
  "javascriptStack": {
    "message": "No stack.",
    "stack": [
      "Unavailable."
    ]
  },
  "nativeStack": [
    {
      "pc": "0x00007ff7a8b01759",
      "symbol": "std::basic_ostream<char,std::char_traits<char> >::operator<<+10873"
    },
    {
      "pc": "0x00007ff7a8b05b7c",
      "symbol": "std::basic_ostream<char,std::char_traits<char> >::operator<<+28316"
    },
    {
      "pc": "0x00007ff7a8b04b38",
      "symbol": "std::basic_ostream<char,std::char_traits<char> >::operator<<+24152"
    },
    {
      "pc": "0x00007ff7a8bf446b",
      "symbol": "v8::base::CPU::has_sse+37723"
    },
    {
      "pc": "0x00007ff7a93f8d9e",
      "symbol": "v8::Isolate::ReportExternalAllocationLimitReached+94"
    },
    {
      "pc": "0x00007ff7a93e0de1",
      "symbol": "v8::SharedArrayBuffer::Externalize+833"
    },
    {
      "pc": "0x00007ff7a92ae6ac",
      "symbol": "v8::internal::Heap::EphemeronKeyWriteBarrierFromCode+1436"
    },
    {
      "pc": "0x00007ff7a92b9a50",
      "symbol": "v8::internal::Heap::ProtectUnprotectedMemoryChunks+1312"
    },
    {
      "pc": "0x00007ff7a92b6584",
      "symbol": "v8::internal::Heap::PageFlagsAreConsistent+3204"
    },
    {
      "pc": "0x00007ff7a92abe13",
      "symbol": "v8::internal::Heap::CollectGarbage+1283"
    },
    {
      "pc": "0x00007ff7a92aa5e4",
      "symbol": "v8::internal::Heap::AddRetainedMap+2356"
    },
    {
      "pc": "0x00007ff7a92cb8b5",
      "symbol": "v8::internal::Factory::NewFillerObject+53"
    },
    {
      "pc": "0x00007ff7a9037b89",
      "symbol": "v8::internal::interpreter::JumpTableTargetOffsets::iterator::operator=+4057"
    },
    {
      "pc": "0x00007ff7a9824d3d",
      "symbol": "v8::internal::SetupIsolateDelegate::SetupHeap+567949"
    },
    {
      "pc": "0x00007ff7a9826d0b",
      "symbol": "v8::internal::SetupIsolateDelegate::SetupHeap+576091"
    },
    {
      "pc": "0x00007ff7a9860567",
      "symbol": "v8::internal::SetupIsolateDelegate::SetupHeap+811703"
    },
    {
      "pc": "0x00007ff7a98118e5",
      "symbol": "v8::internal::SetupIsolateDelegate::SetupHeap+489013"
    },
    {
      "pc": "0x000002e6999c54ef",
      "symbol": ""
    }
  ],
  "javascriptHeap": {
    "totalMemory": 2161156096,
    "totalCommittedMemory": 2161156096,
    "usedMemory": 2134366400,
    "availableMemory": 53126096,
    "memoryLimit": 2197815296,
    "heapSpaces": {
      "read_only_space": {
        "memorySize": 262144,
        "committedMemory": 262144,
        "capacity": 261872,
        "used": 32296,
        "available": 229576
      },
      "new_space": {
        "memorySize": 4194304,
        "committedMemory": 4194304,
        "capacity": 2094976,
        "used": 353904,
        "available": 1741072
      },
      "old_space": {
        "memorySize": 2066067456,
        "committedMemory": 2066067456,
        "capacity": 2057488752,
        "used": 2045173976,
        "available": 12314776
      },
      "code_space": {
        "memorySize": 2523136,
        "committedMemory": 2523136,
        "capacity": 2121568,
        "used": 2035072,
        "available": 86496
      },
      "map_space": {
        "memorySize": 4984832,
        "committedMemory": 4984832,
        "capacity": 3847040,
        "used": 3847040,
        "available": 0
      },
      "large_object_space": {
        "memorySize": 82501632,
        "committedMemory": 82501632,
        "capacity": 82373712,
        "used": 82373712,
        "available": 0
      },
      "code_large_object_space": {
        "memorySize": 622592,
        "committedMemory": 622592,
        "capacity": 550400,
        "used": 550400,
        "available": 0
      },
      "new_large_object_space": {
        "memorySize": 0,
        "committedMemory": 0,
        "capacity": 2094976,
        "used": 0,
        "available": 2094976
      }
    }
  },
  "resourceUsage": {
    "userCpuSeconds": 126.828,
    "kernelCpuSeconds": 6.562,
    "cpuConsumptionPercent": 229.983,
    "maxRss": 2287923200,
    "pageFaults": {
      "IORequired": 872511,
      "IONotRequired": 0
    },
    "fsActivity": {
      "reads": 7892,
      "writes": 131
    }
  },
  "libuv": [
  ],
  "environmentVariables": {
    "=C:": "C:\\Users\\Pajakku\\Documents\\starter-spa",
    "ALLUSERSPROFILE": "C:\\ProgramData",
    "APPDATA": "C:\\Users\\Pajakku\\AppData\\Roaming",
    "BABEL_ENV": "development",
    "CHROME_CRASHPAD_PIPE_NAME": "\\\\.\\pipe\\crashpad_14104_YEGXWUGOZWMELCMX",
    "COLORTERM": "truecolor",
    "CommonProgramFiles": "C:\\Program Files\\Common Files",
    "CommonProgramFiles(x86)": "C:\\Program Files (x86)\\Common Files",
    "CommonProgramW6432": "C:\\Program Files\\Common Files",
    "COMPUTERNAME": "RIFANI-LAPTOP",
    "ComSpec": "C:\\Windows\\system32\\cmd.exe",
    "dp0": "C:\\Users\\Pajakku\\Documents\\starter-spa\\node_modules\\.bin\\",
    "DriverData": "C:\\Windows\\System32\\Drivers\\DriverData",
    "GIT_ASKPASS": "c:\\Users\\Pajakku\\AppData\\Local\\Programs\\Microsoft VS Code\\resources\\app\\extensions\\git\\dist\\askpass.sh",
    "HOMEDRIVE": "C:",
    "HOMEPATH": "\\Users\\Pajakku",
    "INIT_CWD": "C:\\Users\\Pajakku\\Documents\\starter-spa",
    "JAVA_HOME": "C:\\Program Files\\Java\\jdk-11.0.10",
    "JRE_HOME": "C:\\Program Files (x86)\\Java\\jre1.8.0_271",
    "LANG": "en_US.UTF-8",
    "LOCALAPPDATA": "C:\\Users\\Pajakku\\AppData\\Local",
    "LOGONSERVER": "\\\\RIFANI-LAPTOP",
    "NODE": "C:\\Program Files\\nodejs\\node.exe",
    "NODE_ENV": "development",
    "NODE_PATH": "",
    "npm_config_argv": "{\"remain\":[],\"cooked\":[\"run\",\"start-client-windows\"],\"original\":[\"start-client-windows\"]}",
    "npm_config_bin_links": "true",
    "npm_config_ignore_optional": "",
    "npm_config_ignore_scripts": "",
    "npm_config_init_license": "MIT",
    "npm_config_init_version": "1.0.0",
    "npm_config_registry": "https://registry.yarnpkg.com",
    "npm_config_save_prefix": "^",
    "npm_config_strict_ssl": "true",
    "npm_config_user_agent": "yarn/1.22.4 npm/? node/v12.15.0 win32 x64",
    "npm_config_version_commit_hooks": "true",
    "npm_config_version_git_message": "v%s",
    "npm_config_version_git_sign": "",
    "npm_config_version_git_tag": "true",
    "npm_config_version_tag_prefix": "v",
    "npm_execpath": "C:\\Program Files (x86)\\Yarn\\bin\\yarn.js",
    "npm_lifecycle_event": "start-client-windows",
    "npm_lifecycle_script": "set PORT=3030 & max-old-space-size=8000 & react-app-rewired start ",
    "npm_node_execpath": "C:\\Program Files\\nodejs\\node.exe",
    "npm_package_appname": "-",
    "npm_package_browserslist_development_0": "last 1 chrome version",
    "npm_package_browserslist_development_1": "last 1 firefox version",
    "npm_package_browserslist_development_2": "last 1 safari version",
    "npm_package_browserslist_production_0": ">0.2%",
    "npm_package_browserslist_production_1": "not dead",
    "npm_package_browserslist_production_2": "not op_mini all",
    "npm_package_dependencies_axios": "^0.21.0",
    "npm_package_dependencies_babel_cli": "^6.26.0",
    "npm_package_dependencies_babel_node": "^0.0.1-security",
    "npm_package_dependencies_babel_polyfill": "^6.26.0",
    "npm_package_dependencies_babel_preset_env": "^1.7.0",
    "npm_package_dependencies_babel_preset_stage_0": "^6.24.1",
    "npm_package_dependencies_body_parser": "^1.19.0",
    "npm_package_dependencies_composable_middleware": "^0.3.0",
    "npm_package_dependencies_compression": "^1.7.4",
    "npm_package_dependencies_concurrently": "^5.3.0",
    "npm_package_dependencies_cookie_parser": "^1.4.5",
    "npm_package_dependencies_cors": "^2.8.5",
    "npm_package_dependencies_express": "^4.17.1",
    "npm_package_dependencies_file_server": "^2.1.0",
    "npm_package_dependencies_fs_extra": "^9.0.1",
    "npm_package_dependencies_jsonwebtoken": "^8.5.1",
    "npm_package_dependencies_lodash": "^4.17.20",
    "npm_package_dependencies_md5": "^2.3.0",
    "npm_package_dependencies_memory_cache": "^0.2.0",
    "npm_package_dependencies_moment": "^2.29.1",
    "npm_package_dependencies_morgan": "^1.10.0",
    "npm_package_dependencies_multer": "^1.4.2",
    "npm_package_dependencies_node_cron": "^2.0.3",
    "npm_package_dependencies_numeral": "^2.0.6",
    "npm_package_dependencies_query_string": "^6.13.7",
    "npm_package_dependencies_request": "^2.88.2",
    "npm_package_dependencies_request_promise": "^4.2.6",
    "npm_package_dependencies_resource_router_middleware": "^0.7.0",
    "npm_package_dependencies_rimraf": "^3.0.2",
    "npm_package_dependencies_superagent": "^6.1.0",
    "npm_package_dependencies_uid": "^1.0.0",
    "npm_package_dependencies_validatorjs": "^3.22.1",
    "npm_package_dependencies__babel_polyfill": "^7.12.1",
    "npm_package_description": "In the project directory, you can run:",
    "npm_package_devDependencies_counterpart": "^0.18.6",
    "npm_package_devDependencies_customize_cra": "^1.0.0",
    "npm_package_devDependencies_gsap": "^3.5.1",
    "npm_package_devDependencies_history": "4.10.1",
    "npm_package_devDependencies_izitoast": "^1.4.0",
    "npm_package_devDependencies_material_icons": "^0.5.1",
    "npm_package_devDependencies_mobx": "^6.0.4",
    "npm_package_devDependencies_mobx_react": "^7.0.5",
    "npm_package_devDependencies_nodemon": "^2.0.6",
    "npm_package_devDependencies_node_sass": "^4.12.0",
    "npm_package_devDependencies_oboe": "^2.1.5",
    "npm_package_devDependencies_plotly_js": "^1.58.4",
    "npm_package_devDependencies_react": "^17.0.1",
    "npm_package_devDependencies_react_ace": "^8.0.0",
    "npm_package_devDependencies_react_app_rewired": "^2.1.6",
    "npm_package_devDependencies_react_cookies": "^0.1.1",
    "npm_package_devDependencies_react_device_detect": "^1.14.0",
    "npm_package_devDependencies_react_dom": "^17.0.1",
    "npm_package_devDependencies_react_load_script": "^0.0.6",
    "npm_package_devDependencies_react_md": "^2.4.2",
    "npm_package_devDependencies_react_plotly_js": "^2.5.1",
    "npm_package_devDependencies_react_render_html": "^0.6.0",
    "npm_package_devDependencies_react_router_dom": "^5.2.0",
    "npm_package_devDependencies_react_scripts": "4.0.1",
    "npm_package_devDependencies_web_vitals": "^0.2.4",
    "npm_package_devDependencies__mdi_font": "^5.8.55",
    "npm_package_devDependencies__testing_library_jest_dom": "^5.11.4",
    "npm_package_devDependencies__testing_library_react": "^11.1.0",
    "npm_package_devDependencies__testing_library_user_event": "^12.1.10",
    "npm_package_eslintConfig_extends": "react-app",
    "npm_package_name": "mpk-starter-spa",
    "npm_package_private": "true",
    "npm_package_proxy": "http://localhost:8080",
    "npm_package_readmeFilename": "README.md",
    "npm_package_scripts_build": "concurrently --kill-others-on-fail \"yarn build-client\" \"yarn build-server\"",
    "npm_package_scripts_build_client": "react-app-rewired build",
    "npm_package_scripts_build_server": "babel server -s -D -d dist --presets es2015,stage-0",
    "npm_package_scripts_built": "node ./scripts/built-packager",
    "npm_package_scripts_dev": "concurrently --kill-others-on-fail \"yarn start-server\" \"yarn start-client\"",
    "npm_package_scripts_eject": "react-scripts eject",
    "npm_package_scripts_start_client": "PORT=3030 react-app-rewired start",
    "npm_package_scripts_start_client_windows": "set PORT=3030 & max-old-space-size=8000 & react-app-rewired start ",
    "npm_package_scripts_start_prod": "NODE_ENV=production node ./built/server",
    "npm_package_scripts_start_server": "APPLICATION_TYPE=internal PORT=8080 NODE_ENV=development nodemon -w server --exec \"babel-node server --presets env,stage-0\"",
    "npm_package_scripts_start_server_windows": "set APPLICATION_TYPE=internal & set PORT=8080  & set NODE_ENV=development & nodemon -w server --exec \"babel-node server --presets env,stage-0\"",
    "npm_package_scripts_test": "react-scripts test",
    "npm_package_subname": "Base Front End Project",
    "npm_package_version": "0.1.0",
    "NUMBER_OF_PROCESSORS": "12",
    "NVM_HOME": "C:\\Users\\Administrator\\AppData\\Roaming\\nvm",
    "NVM_SYMLINK": "C:\\Program Files\\nodejs",
    "OneDrive": "C:\\Users\\Pajakku\\OneDrive",
    "OneDriveConsumer": "C:\\Users\\Pajakku\\OneDrive",
    "ORIGINAL_XDG_CURRENT_DESKTOP": "undefined",
    "OS": "Windows_NT",
    "Path": "C:\\Users\\Pajakku\\AppData\\Local\\Temp\\yarn--1611807870961-0.058078612055824985;C:\\Users\\Pajakku\\Documents\\starter-spa\\node_modules\\.bin;C:\\Users\\Pajakku\\AppData\\Local\\Yarn\\Data\\link\\node_modules\\.bin;C:\\Users\\Pajakku\\AppData\\Local\\Yarn\\bin;C:\\Program Files\\libexec\\lib\\node_modules\\npm\\bin\\node-gyp-bin;C:\\Program Files\\lib\\node_modules\\npm\\bin\\node-gyp-bin;C:\\Program Files\\nodejs\\node_modules\\npm\\bin\\node-gyp-bin;C:\\Program Files\\Common Files\\Oracle\\Java\\javapath;C:\\Program Files\\ImageMagick-7.0.10-Q16;C:\\Program Files (x86)\\Common Files\\Oracle\\Java\\javapath;C:\\Windows\\system32;C:\\Windows;C:\\Windows\\System32\\Wbem;C:\\Windows\\System32\\WindowsPowerShell\\v1.0\\;C:\\Windows\\System32\\OpenSSH\\;C:\\Program Files (x86)\\NVIDIA Corporation\\PhysX\\Common;C:\\Program Files\\NVIDIA Corporation\\NVIDIA NvDLISR;C:\\Program Files (x86)\\Yarn\\bin\\;C:\\Program Files\\dotnet\\;C:\\Program Files\\Inkscape\\bin;C:\\Program Files\\Java\\jdk-11.0.10\\bin;C:\\Users\\Administrator\\AppData\\Roaming\\nvm;C:\\Program Files\\nodejs;C:\\Users\\Pajakku\\AppData\\Local\\Microsoft\\WindowsApps;C:\\Users\\Pajakku\\AppData\\Local\\Programs\\Microsoft VS Code\\bin;C:\\Users\\Pajakku\\AppData\\Local\\gitkraken\\bin;C:\\Users\\Pajakku\\AppData\\Local\\Programs\\Git\\cmd",
    "PATHEXT": ".COM;.EXE;.BAT;.CMD;.VBS;.VBE;.JSE;.WSF;.WSH;.MSC;.CPL",
    "PORT": "3030 ",
    "PROCESSOR_ARCHITECTURE": "AMD64",
    "PROCESSOR_IDENTIFIER": "Intel64 Family 6 Model 158 Stepping 10, GenuineIntel",
    "PROCESSOR_LEVEL": "6",
    "PROCESSOR_REVISION": "9e0a",
    "ProgramData": "C:\\ProgramData",
    "ProgramFiles": "C:\\Program Files",
    "ProgramFiles(x86)": "C:\\Program Files (x86)",
    "ProgramW6432": "C:\\Program Files",
    "PROMPT": "$P$G",
    "PSModulePath": "C:\\Users\\Pajakku\\Documents\\WindowsPowerShell\\Modules;C:\\Program Files (x86)\\WindowsPowerShell\\Modules;C:\\Program Files\\WindowsPowerShell\\Modules;C:\\Windows\\system32\\WindowsPowerShell\\v1.0\\Modules;C:\\Program Files (x86)\\AutoIt3\\AutoItX",
    "PUBLIC": "C:\\Users\\Public",
    "SESSIONNAME": "Console",
    "SystemDrive": "C:",
    "SystemRoot": "C:\\Windows",
    "TEMP": "C:\\Users\\Pajakku\\AppData\\Local\\Temp",
    "TERM_PROGRAM": "vscode",
    "TERM_PROGRAM_VERSION": "1.52.1",
    "TMP": "C:\\Users\\Pajakku\\AppData\\Local\\Temp",
    "USERDOMAIN": "RIFANI-LAPTOP",
    "USERDOMAIN_ROAMINGPROFILE": "RIFANI-LAPTOP",
    "USERNAME": "Pajakku",
    "USERPROFILE": "C:\\Users\\Pajakku",
    "VBOX_MSI_INSTALL_PATH": "C:\\Program Files\\Oracle\\VirtualBox\\",
    "VSCODE_GIT_ASKPASS_MAIN": "c:\\Users\\Pajakku\\AppData\\Local\\Programs\\Microsoft VS Code\\resources\\app\\extensions\\git\\dist\\askpass-main.js",
    "VSCODE_GIT_ASKPASS_NODE": "C:\\Users\\Pajakku\\AppData\\Local\\Programs\\Microsoft VS Code\\Code.exe",
    "VSCODE_GIT_IPC_HANDLE": "\\\\.\\pipe\\vscode-git-65c77aced8-sock",
    "WEBPACK_DEV_SERVER": "true",
    "windir": "C:\\Windows",
    "YARN_WRAP_OUTPUT": "false",
    "_prog": "node"
  },
  "sharedObjects": [
    "C:\\Program Files\\nodejs\\node.exe",
    "C:\\Windows\\SYSTEM32\\ntdll.dll",
    "C:\\Windows\\System32\\KERNEL32.DLL",
    "C:\\Windows\\System32\\KERNELBASE.dll",
    "C:\\Windows\\System32\\WS2_32.dll",
    "C:\\Windows\\System32\\RPCRT4.dll",
    "C:\\Windows\\SYSTEM32\\dbghelp.dll",
    "C:\\Windows\\System32\\ADVAPI32.dll",
    "C:\\Windows\\System32\\ucrtbase.dll",
    "C:\\Windows\\System32\\msvcrt.dll",
    "C:\\Windows\\System32\\sechost.dll",
    "C:\\Windows\\System32\\USER32.dll",
    "C:\\Windows\\System32\\win32u.dll",
    "C:\\Windows\\System32\\GDI32.dll",
    "C:\\Windows\\System32\\gdi32full.dll",
    "C:\\Windows\\System32\\msvcp_win.dll",
    "C:\\Windows\\System32\\PSAPI.DLL",
    "C:\\Windows\\System32\\CRYPT32.dll",
    "C:\\Windows\\System32\\MSASN1.dll",
    "C:\\Windows\\System32\\bcrypt.dll",
    "C:\\Windows\\SYSTEM32\\IPHLPAPI.DLL",
    "C:\\Windows\\SYSTEM32\\USERENV.dll",
    "C:\\Windows\\System32\\profapi.dll",
    "C:\\Windows\\SYSTEM32\\WINMM.dll",
    "C:\\Windows\\SYSTEM32\\winmmbase.dll",
    "C:\\Windows\\System32\\cfgmgr32.dll",
    "C:\\Windows\\System32\\bcryptPrimitives.dll",
    "C:\\Windows\\System32\\IMM32.DLL",
    "C:\\Windows\\System32\\powrprof.dll",
    "C:\\Windows\\System32\\UMPDC.dll",
    "C:\\Windows\\SYSTEM32\\CRYPTBASE.DLL",
    "C:\\Windows\\system32\\uxtheme.dll",
    "C:\\Windows\\System32\\combase.dll",
    "C:\\Windows\\system32\\mswsock.dll",
    "C:\\Windows\\System32\\kernel.appcore.dll",
    "C:\\Windows\\System32\\NSI.dll",
    "C:\\Windows\\SYSTEM32\\dhcpcsvc6.DLL",
    "C:\\Windows\\SYSTEM32\\dhcpcsvc.DLL",
    "C:\\Windows\\SYSTEM32\\DNSAPI.dll",
    "C:\\Windows\\system32\\napinsp.dll",
    "C:\\Windows\\system32\\pnrpnsp.dll",
    "C:\\Windows\\System32\\winrnr.dll",
    "C:\\Windows\\system32\\NLAapi.dll",
    "C:\\Windows\\system32\\wshbth.dll",
    "C:\\Program Files\\Bonjour\\mdnsNSP.dll",
    "C:\\Windows\\System32\\rasadhlp.dll",
    "C:\\Windows\\System32\\fwpuclnt.dll",
    "\\\\?\\C:\\Users\\Pajakku\\Documents\\starter-spa\\node_modules\\node-sass\\vendor\\win32-x64-72\\binding.node"
  ]
}