[
  {
    "label":"Group 1"
  },
  {
    "label": "Menu Lv 1",
    "children":[
      {
        "label":"Dashboard Efiling",
        "index":"dasbor, dashboard",
        "resourceUri":"",
        "iconClassName":"mdi mdi mdi-view-dashboard",
        "path":"/internal/dashboard",
        "childPath":[]
      },
      {
        "label":"Dashboard BWK API",
        "index":"dasbor, dashboard",
        "resourceUri":"",
        "iconClassName":"mdi mdi mdi-view-dashboard",
        "path":"/internal/dashboardBWKP",
        "childPath":[]
      },
      {
        "label":"Details",
        "index":"details, detail",
        "resourceUri":"",
        "iconClassName":"mdi mdi-send",
        "path":"/internal/details/general",
        "childPath":[
          "/internal/details/.*"
        ]
      }
    ]
  },
  {
    "label":"Setting",
    "children":[
      {
        "label":"Konfigurasi",
        "index":"konfig, konfigurasi",
        "resourceUri":"",
        "iconClassName":"mdi mdi mdi-view-dashboard",
        "path":"/internal/konfigurasi",
        "childPath":[]
      }
    ]
  }
]